
$ \pagebreak $
\section{d_expr.ads}
\begin{lstlisting}[ basicstyle=\small, numbers=left, frame=single, tabsize=3, backgroundcolor=\color{mygray}]
with d_stack, d_map;

generic
    n: natural;
    max_vertical_size_expression: natural; -- Height of the tree used
package d_expr is
    type expression_type    is (e_null, e_const, e_var, e_un, e_bin, e_gen);
    type un_op              is (neg, sin, cos, exp, log);
    type bin_op             is (add, sub, prod, quot, power);

    type expression         is private;

    space_overflow: exception;

    -- Operations to build expressions:
    function b_null return expression;
    function b_constant (n: in natural) return expression;
    function b_var (x: in character) return expression;
    function b_gen (x: in character) return expression;
    function b_un_op (op: in un_op; esb: in expression) return expression;
    function b_bin_op (op: in bin_op; e1, e2: in expression) return expression;

    -- Operations to get components from expressions:
    function e_type (e: in expression) return expression_type;
    function g_const (e: in expression) return natural;
    function g_var (e: in expression) return character;
    function g_gen (e: in expression) return character;
    procedure g_un (e: in expression; op: out un_op; esb: out expression);
    procedure g_bin (e: in expression; op: out bin_op; esb1, esb2: out expression);

    -- Operations to iterate over a expression
    type iterator is limited private;

    bad_use: exception;

    procedure first (e: in expression; it: out iterator);
    function is_valid (it: in iterator) return boolean;
    procedure get (it: in iterator; e: out expression);
    procedure succ (it: in out iterator);

    function to_string (it: in iterator) return string;
    function to_string (e: in expression) return string;

    -- Operations to build new expression from generics
    function build_expression_from_generics(gen1, gen2: in expression; 
        it: in out iterator) return expression;

    function operate(it: in out iterator) return expression;
private
    max_e: constant natural:= n;
    max_e_height: constant natural:= max_vertical_size_expression;
    max_e_parents: constant natural:= max_e_height-1;

    b: constant natural:= natural(float(max_e)*1.25);

    type expression is new natural range 0..b-1;

    type direction is (left, right);

    type parent is 
        record
            e: expression;
            d: direction;
        end record;

    package parents_dstack is new d_stack(parent, max_e_height); 
    use parents_dstack;
    package expression_dstack is new d_stack(expression, max_e_height); 
    use expression_dstack;
    package my_dmap is new d_map(character, expression); use my_dmap;

    type iterator is
        record
            e: expression;
            s: expression_dstack.stack;
            p: parents_dstack.stack;
        end record;
end d_expr;
\end{lstlisting}
$ \pagebreak $
\section{d_expr.adb}
\begin{lstlisting}[ basicstyle=\small, numbers=left, frame=single, tabsize=3, backgroundcolor=\color{mygray}]
with ada.strings;              use ada.strings;
with ada.strings.fixed;        use ada.strings.fixed;
with ada.strings.unbounded;    use ada.strings.unbounded;
with Ada.Text_IO; use Ada.Text_IO; 

package body d_expr is
    subtype index is expression;

    type block(et: expression_type:= e_null) is
        record
            case et is
                when e_null =>
                    null;
                when e_const =>
                    val: natural;
                when e_var =>
                    var: character;
                when e_un =>
                    opun: un_op;
                    esb: index;
                when e_bin =>
                    opbin: bin_op;
                    esb1, esb2: index;
                when e_gen =>
                    gen: character;
                end case;
            end record;

    type block_state is (occupied, free);

    type cell is
        record
            b: block;
            bs: block_state;
        end record;

    type expression_space is array(index) of cell;

    type expression_table is
        record
            m: expression_space;
            n: natural;
        end record;

    et: expression_table;

    -- Equal test
    function generic_equal(e1, e2: in expression) return boolean is
        b1: block renames et.m(e1).b;
        b2: block renames et.m(e2).b;
        r: boolean;
    begin
        r:= false;
        if b1.et=b2.et then
            case b1.et is
                when e_un =>
                    r:= b1.opun=b2.opun;
                when e_bin =>
                    r:= b1.opbin=b2.opbin;
                when others => 
                    r:= e1=e2;
            end case;
        end if;
        return r;
    end generic_equal;

    -- Hashing declarations
    type vector is array(1..9) of natural;
    m: constant natural:= 256;

    -- Hashing procedures and functions
    procedure append(v0: in natural; a: in out vector; n: in out natural) is
        v: natural;
    begin
        v:= v0;
        while v>0 loop
            n:= n+1; a(n):= v mod m; v:= v/m;
        end loop;
    end append;

    procedure to_vector(b: in block; a: out vector; n: out natural) is
    begin
        n:= 1;
        a(1):= expression_type'pos(b.et);
        case b.et is
            when e_null => null;
            when e_const => append(b.val, a, n);
            when e_var => append(character'pos(b.var), a, n);
            when e_gen => append(character'pos(b.gen), a, n);
            when e_un =>
                a(1):= a(1)*8 + un_op'pos(b.opun);
                append(natural(b.esb), a, n);
            when e_bin =>
                a(1):= a(1)*8 + bin_op'pos(b.opbin);
                append(natural(b.esb1), a, n);
                append(natural(b.esb2), a, n);
        end case;
    end to_vector;

    procedure to_natural(a: in vector; n: in natural; t: out natural) is
        c: natural;
        k, l: integer;
        r: array(1..2*n) of natural;
    begin
        for i in 1..2*n loop r(i):= 0; end loop;
        k:= 2*n+1;
        for i in reverse 1..n loop
            k:=k-1; l:= k; c:= 0;
            for j in reverse 1..n loop
                c:= c + r(l) + a(i)*a(j);
                r(l):= c mod m; c:= c/m;
                l:= l-1;
            end loop;
            r(l):= c;
        end loop;
        t:= (r(n)*m + r(n+1));
    end to_natural;

    function hash(bl: in block) return index is
        a: vector; n: natural; t: natural;
    begin
        to_vector (bl, a, n);
        to_natural(a, n, t);
        return index(t mod b);
    end hash;

    procedure allocate(b: in block; e: out index) is
        m: expression_space renames et.m;
        n: natural renames et.n;
        i0, i: index; -- initial and current position
        na: index; -- number of attempts
    begin
        if n=max_e then raise space_overflow; end if;

        i0:= hash(b); na:= 0; i:= i0;
        while m(i).bs/=free and m(i).b/=b loop
            na:= na+1; i:= i0+na*na;
        end loop;

        if m(i).bs=free then m(i):= (b, occupied); end if;
        e:= i;
    end allocate;

    procedure prep_expr_space is
        m: expression_space renames et.m;
        n: natural renames et.n;
    begin
        for i in index'range loop m(i).bs:= free; end loop;
        n:= 0;
    end prep_expr_space;

    function b_null return expression is
        b: block; e: index;
    begin
        b:= block'(et=>e_null);
        allocate(b,e);
        return e;
    end b_null;

    function b_constant(n: in natural) return expression is
        b: block; e: index;
    begin
        b:= (e_const, n);
        allocate(b,e);
        return e;
    end b_constant;

    function b_var(x: in character) return expression is
        b: block; e: index;
    begin
        b:= (e_var,x);
        allocate(b,e);
        return e;
    end b_var;

    function b_gen(x: in character) return expression is
        b: block; e: index;
    begin
        b:= (e_gen,x);
        allocate(b,e);
        return e;
    end b_gen;

    function b_un_op (op: in un_op; esb: in expression) return expression is
        b: block; e: index;
    begin
        b:= (e_un,op,esb);
        allocate(b,e);
        return e;
    end b_un_op;

    function b_bin_op(op: in bin_op; e1,e2: in expression) return expression is
        b:block; e: index;
    begin
        b:= (e_bin,op,e1,e2);
        allocate(b,e);
        return e;
    end b_bin_op;

    function e_type(e: in expression) return expression_type is
       s: expression_space renames et.m;
    begin
    return s(e).b.et;
    end e_type;

    function g_const(e: in expression) return natural is
       s: expression_space renames et.m;
    begin
    return s(e).b.val;
    end g_const;

    function g_var(e: in expression) return character is
       s: expression_space renames et.m;
    begin
    return s(e).b.var;
    end g_var;

    function g_gen(e: in expression) return character is
       s: expression_space renames et.m;
    begin
    return s(e).b.gen;
    end g_gen;

    procedure g_un(e: in expression; op: out un_op; esb: out expression) is
       s: expression_space renames et.m;
    begin
    op:= s(e).b.opun;
    esb:= s(e).b.esb;
    end g_un;

    procedure g_bin(e: in expression; op: out bin_op; esb1, esb2: 
            out expression) is
       s: expression_space renames et.m;
    begin
    op:= s(e).b.opbin;
    esb1:= s(e).b.esb1;
    esb2:= s(e).b.esb2;
    end g_bin;

    -- Iterator procedures and functions
    procedure first (e: in expression; it: out iterator) is
        m: expression_space renames et.m;
        s: expression_dstack.stack renames it.s;
        p: parents_dstack.stack renames it.p;
        i: expression;
        enil: expression;
        unil: un_op;
        bnil: bin_op;
    begin
        -- Save the global expression which will be iterated
        it.e:= e;

        -- Init stacks and check if expression is iterable
        empty(s); empty(p);
        if m(e).b.et/=e_null then
            -- Get the root expression
            i:= e;

            -- While it has left child
            while m(i).b.et=e_bin or m(i).b.et=e_un loop
                push(s, i); push(p, (i, left));
                case m(i).b.et is
                    when e_un =>
                        g_un(i, unil, i);
                    when e_bin =>
                        g_bin(i, bnil, i, enil);
                    when others =>
                        null;
                end case;
            end loop;

            -- Push leaf
            push(s, i);
        end if;
    end first;

    function is_valid (it: in iterator) return boolean is
        s: expression_dstack.stack renames it.s;
    begin
        return not is_empty(s);
    end is_valid;

    procedure get (it: in iterator; e: out expression) is
        s: expression_dstack.stack renames it.s;
    begin
        e:= top(s);
    exception
        when expression_dstack.bad_use => raise;
    end get;
        

    procedure succ (it: in out iterator) is
        m: expression_space renames et.m;
        es: expression_dstack.stack renames it.s; -- expression stack
        i: expression;
        ps: parents_dstack.stack renames it.p; -- parents stack
        p: parent;
        enil: expression;
        unil: un_op;
        bnil: bin_op;
    begin
        i:= top(es); pop(es); 
        if not is_empty(ps) then p:= top(ps); pop(ps); end if;

        -- If it's an expression with second expression child
        if m(i).b.et=e_bin then

            -- Save parent expression with right direction
            if is_empty(ps) 
                then push(ps, (i, right)); 
                else push(ps, (p.e, right)); 
            end if;

            -- Get the second child
            g_bin(i, bnil, enil, i);

            -- While it has left child
            while m(i).b.et=e_bin or m(i).b.et=e_un loop
                push(es, i); 
                push(ps, (i, left));
                case m(i).b.et is
                    when e_un =>
                        g_un(i, unil, i);
                    when e_bin =>
                        g_bin(i, bnil, i, enil);
                    when others =>
                        null;
                end case;
            end loop;

            -- Push leaf
            push(es, i);
        end if;
    exception
        when expression_dstack.bad_use => raise;
    end succ;


    function to_string (it: in iterator; highlight_subexpression: in boolean) 
        return string;
    procedure to_string0 (it: in iterator; hl: in boolean; 
        s: in out expression_dstack.stack; buffer: in out unbounded_string);
    procedure append (buffer: in out unbounded_string; op: in un_op);
    procedure append (buffer: in out unbounded_string; op: in bin_op);
    
    function to_string(it: in iterator) return string is
    begin
        return to_string(it, true);
    end to_string;

    function to_string(e: in expression) return string is
        it: iterator;
    begin
        first(e, it);
        return to_string(it, false);
    end to_string;


    -- Prints the expression related to the iterator 'it', highlighting with 
    --  square brackets a certain subexpression (depending on iterator state) 
    --  when 'hl' is true. If it's false, clean expression will be printed.
    function to_string (it: in iterator; highlight_subexpression: in boolean) 
            return string is
        s: expression_dstack.stack;
        buffer: unbounded_string;
    begin
        -- Init recursive call variables
        empty(s); push(s, it.e);

        -- Generate unbounded string with expression
        to_string0 (it, highlight_subexpression, s, buffer);

        -- Return bounded string
        return to_string(buffer);
    end to_string;

    -- Auxiliar procedure for recursive calls
    procedure to_string0 (it: in iterator; hl: in boolean; 
        s: in out expression_dstack.stack; buffer: in out unbounded_string) is
        e: expression;
        hl_this: boolean; -- True when this is the expression to highlight

        -- Variables for unary and binary expression cases
        e1, e2: expression;
        opu: un_op; 
        opb: bin_op;
    begin
        -- Get the expression corresponding to this recursive level
        e:= top(s);

        -- Check if subexpression must be highlighted and it's this one
        if hl 
            then hl_this:= s=it.s;
            else hl_this:= false;
        end if;
        if hl_this then append(buffer, "["); end if;

        -- Append expression info
        case e_type(e) is
            when e_null =>
                append(buffer, "Invalid expression");

            when e_const =>
                append(buffer, trim(natural'image(g_const(e)), left));

            when e_var =>
                append(buffer, g_var(e));

            when e_gen =>
                append(buffer, g_gen(e));

            when e_un =>
                g_un(e, opu, e1);
                
                append(buffer, opu); -- Append operand

                -- Append subexpression
                if e_type(e1)/=e_bin then append(buffer, "("); end if;
                push(s, e1); to_string0(it, hl, s, buffer);
                if e_type(e1)/=e_bin then append(buffer, ")"); end if;

            when e_bin =>
                g_bin(e, opb, e1, e2);

                if not hl_this then append(buffer, "("); end if;

                push(s, e1); to_string0(it, hl, s, buffer);
                append(buffer, opb); pop(s);
                push(s,e2); to_string0(it, hl, s, buffer); 

                if not hl_this then append(buffer, ")"); end if;
        end case;

        -- If this is the subexpression to hl, append ending square bracket
        if hl_this then append(buffer, "]"); end if;

        -- Pop subexpression since it's already processed
        if e_type(e)/=e_bin then pop(s); end if;

    end to_string0;

    -- Append to the string the unary operand
    procedure append (buffer: in out unbounded_string; op: in un_op) is
    begin
        case op is
            when neg => append(buffer, "-");
            when exp | sin | cos | log => append(buffer, un_op'Image(op));
        end case;
    end append;

    -- Append to the string the binary operand
    procedure append (buffer: in out unbounded_string; op: in bin_op) is
    begin
        case op is
            when add => append(buffer, "+");
            when sub => append(buffer, "-");
            when prod => append(buffer, "*");
            when quot => append(buffer, "/");
            when power => append(buffer, "^");
        end case;
    end append;

    ------------------ EXPRESSION BUILDS FROM GENERICS ------------------------
    function is_generic_analog(exp, gen: in expression; m: out map) 
            return boolean;
    function build_expression_from_generic(g: in expression; m: in map) 
            return expression;
    function grow_expression_with_iterator(it: in out iterator; 
            e: in expression) return expression;

    function build_expression_from_generics(gen1, gen2: in expression; 
            it: in out iterator) return expression is
        e: expression;
        m: map;
    begin
        get(it, e);
        empty(m);
        if is_generic_analog(e, gen1, m) then
            e:= build_expression_from_generic(gen2, m);
            if e_type(e)/=e_null 
                then return grow_expression_with_iterator(it, e);
                else return b_null;
            end if;
        else
            return b_null;
        end if;
    end build_expression_from_generics;

    function is_generic_analog(exp, gen: in expression; m: out map) 
            return boolean is
        e1, e2, g1, g2: expression;
        uop: un_op;
        bop: bin_op;
        r: boolean;
    begin
        r:= false;

        if generic_equal(exp, gen) then
            case e_type(exp) is
                when e_un =>
                    g_un(exp, uop, e1);
                    g_un(gen, uop, g1);
                    if is_generic_analog(e1, g1, m) then r:= true; end if;
                when e_bin =>
                    g_bin(exp, bop, e1, e2);
                    g_bin(gen, bop, g1, g2);
                    if is_generic_analog(e1, g1, m) and then 
                        is_generic_analog(e2, g2, m) then 
                        r:= true; 
                    end if;
                when others =>
                    r:= true;
            end case;
        else
            if e_type(gen)=e_gen then put(m, g_gen(gen), exp); r:= true; end if;
        end if;

        return r;
    exception
        when my_dmap.already_exists => return false;
    end is_generic_analog;


    function build_expression_from_generic(g: in expression; m: in map) 
            return expression is
        e1, e2: expression;
        new_e: expression;
        g1, g2: expression;
        uop: un_op;
        bop: bin_op;
    begin
        case e_type(g) is
            when e_un =>
                g_un(g, uop, g1);
                e1:= build_expression_from_generic(g1, m);
                if e_type(e1)/=e_null then new_e:= b_un_op(uop, e1);
                                      else new_e:= b_null;
                end if;
            when e_bin =>
                g_bin(g, bop, g1, g2);
                e1:= build_expression_from_generic(g1, m);
                e2:= build_expression_from_generic(g2, m);
                if e_type(e1)/=e_null and e_type(e2)/=e_null 
                    then new_e:= b_bin_op(bop, e1, e2);
                    else new_e:= b_null;
                end if;
            when e_gen =>
                new_e:= get(m, g_gen(g));
            when others =>
                new_e:= g;
        end case;
        return new_e;
    exception
        when my_dmap.does_not_exists => return b_null;
    end build_expression_from_generic;

    function grow_expression_with_iterator(it: in out iterator; 
            e: in expression) return expression is
        ps: parents_dstack.stack renames it.p;
        p: parent;

        uop: un_op;
        bop: bin_op;
        e1, e2: expression;

        new_e: expression;
    begin
        new_e:= e;
        while not is_empty(ps) loop
            p:= top(ps); pop(ps);
            case e_type(p.e) is
                when e_un =>
                    g_un(p.e, uop, e1);
                    new_e:= b_un_op(uop, new_e);
                when e_bin =>
                    g_bin(p.e, bop, e1, e2);
                    if p.d=left then new_e:= b_bin_op(bop, new_e, e2);
                                else new_e:= b_bin_op(bop, e1, new_e);
                    end if;
                when others =>
                    null; -- Never reached. Only unary and binary op has childs
            end case;
            put_line(to_string(new_e));
        end loop;
        return new_e;
    end grow_expression_with_iterator;

    ------------------- OPERATE -------------------------------
    function operate(e: in expression) return expression;

    function operate(it: in out iterator) return expression is
        e: expression;
    begin
        get(it, e); 
        e:= operate(e);
        if e_type(e)=e_null then return b_null;
                            else return grow_expression_with_iterator(it, e);
        end if;
    end operate;

    function operate(e: in expression) return expression is
        new_e: expression;

        bop: bin_op;
        e1, e2: expression;

        i: integer;
    begin
        case e_type(e) is
            when e_const =>
                new_e:= e;
            when e_bin =>
                g_bin(e, bop, e1, e2);
                e1:= operate(e1); e2:= operate(e2);
                if e_type(e1)=e_const and e_type(e2)=e_const then
                    case bop is
                        when add =>
                            new_e:= b_constant(g_const(e1) + g_const(e2));
                        when sub =>
                            i:= g_const(e1) - g_const(e2);
                            if i<0 then 
                                new_e:= b_constant(natural(-i));
                                new_e:= b_un_op(neg, new_e);
                            else
                                new_e:= b_constant(natural(i));
                            end if;
                        when prod =>
                            new_e:= b_constant(g_const(e1) * g_const(e2));
                        when quot =>
                            new_e:= b_constant(g_const(e1) / g_const(e2));
                        when power =>
                            new_e:= b_constant(g_const(e1) ** g_const(e2));
                    end case;
                else
                    new_e:= b_null;
                end if;
            when others =>
                new_e:= b_null;
        end case;
        return new_e;

    end operate;
begin
    prep_expr_space;
end d_expr;
\end{lstlisting}
$ \pagebreak $
\section{d_map.ads}
\begin{lstlisting}[ basicstyle=\small, numbers=left, frame=single, tabsize=3, backgroundcolor=\color{mygray}]
generic
    type key is (<>);
    type item is private;
package d_map is
    type map is limited private;

    already_exists, does_not_exists: exception;

    procedure empty (m: out map);
    procedure put (m: in out map; k: in key; x: in item);
    function get (m: in map; k: in key) return item;
private
    type existence is array(key) of boolean;
    type contents is array(key) of item;

    type map is
        record
            e: existence;
            c: contents;
        end record;
end d_map;
\end{lstlisting}
$ \pagebreak $
\section{d_map.adb}
\begin{lstlisting}[ basicstyle=\small, numbers=left, frame=single, tabsize=3, backgroundcolor=\color{mygray}]
package body d_map is

    -- Empty the mapping
    procedure empty (m: out map) is
        e: existence renames m.e;
    begin
        for i in key loop e(i):= false; end loop;
    end empty;

    -- Associate an item to a certain key
    procedure put (m: in out map; k: in key; x: in item) is
        e: existence renames m.e;
        c: contents  renames m.c;
    begin
        if e(k) then if c(k)/=x then raise already_exists; end if;
                else e(k):= true; c(k):= x;
        end if;
    end put;

    -- Get the item related to a key
    function get (m: in map; k: in key) return item is
        e: existence renames m.e;
        c: contents  renames m.c;
    begin
        if e(k) then return c(k);
                else raise does_not_exists;
        end if;
    end get;
end d_map;
\end{lstlisting}
$ \pagebreak $
\section{d_rules.ads}
\begin{lstlisting}[ basicstyle=\small, numbers=left, frame=single, tabsize=3, backgroundcolor=\color{mygray}]
with utilities;             use utilities;
with global_declarations;   use global_declarations, global_declarations.my_dexpr;
with ada.strings.unbounded; use ada.strings.unbounded;
with ada.characters.latin_1; 

generic
    n: natural;
package d_rules is
    type rules_table is limited private;

    space_overflow: exception;
    does_not_exists: exception;

    procedure empty(rt: out rules_table);
    procedure put(rt: in out rules_table);
    function to_string(rt: in rules_table) return string;

    function apply_rule(rt: in rules_table; r: in natural; it: in out iterator) 
        return expression;
private
    max_r: constant natural:= n;

    type index is new natural range 0..max_r;

    type block is
        record
            e1: expression;
            e2: expression;
        end record;

    type mem_space is array(index range 1..index'last) of block;

    type rules_table is
        record
            m: mem_space;
            n: index;
        end record;
end d_rules; 
\end{lstlisting}
$ \pagebreak $
\section{d_rules.adb}
\begin{lstlisting}[ basicstyle=\small, numbers=left, frame=single, tabsize=3, backgroundcolor=\color{mygray}]
package body d_rules is

    procedure empty(rt: out rules_table) is
        n: index renames rt.n;
    begin
        n:= 0;
    end empty;

    procedure put(rt: in out rules_table) is
        n: index renames rt.n;
        m: mem_space renames rt.m;
        e1, e2: expression;
    begin
        read_rule(e1, e2);
        n:= n+1; m(n):= (e1, e2);
    exception
        when constraint_error => raise space_overflow;
    end put;

    function to_string(rt: in rules_table) return string is
        nl: string:= ada.characters.latin_1.CR & ada.characters.latin_1.LF;
        n: index renames rt.n;
        m: mem_space renames rt.m;
        buffer: unbounded_string;
    begin
        if n=0 then
            append(buffer, "There are no rules");
        else
            for i in 1..n loop
                append(buffer, index'image(i) & ".- " & to_string(m(i).e1) 
                                & " = " & to_string(m(i).e2) & nl);
            end loop;
        end if;
        return to_string(buffer);
    end to_string;

    function apply_rule(rt: in rules_table; r: in natural; it: in out iterator) 
            return expression is
        gen1: expression renames rt.m(index(r)).e1;
        gen2: expression renames rt.m(index(r)).e2;
    begin
        return build_expression_from_generics(gen1, gen2, it);
    end apply_rule;
end d_rules;
\end{lstlisting}
$ \pagebreak $
\section{d_stack.ads}
\begin{lstlisting}[ basicstyle=\small, numbers=left, frame=single, tabsize=3, backgroundcolor=\color{mygray}]
generic
    type elem is private;
    n: natural;
package d_stack is

    type stack is limited private;

    space_overflow, bad_use: exception;

    procedure empty (s: out stack);
    procedure push (s: in out stack; x: in elem);
    procedure pop (s: in out stack);
    function is_empty (s: in stack) return boolean;
    function top (s: in stack) return elem;

    function "=" (s1, s2: in stack) return boolean;

private
    max: constant natural:= n;
    type index is new natural range 0..max;
    type mem_space is array(index range 1..index'last) of elem;

    type stack is
        record
            m: mem_space;
            n: index;
        end record;
end d_stack;


\end{lstlisting}
$ \pagebreak $
\section{d_stack.adb}
\begin{lstlisting}[ basicstyle=\small, numbers=left, frame=single, tabsize=3, backgroundcolor=\color{mygray}]
package body d_stack is

    procedure empty (s: out stack) is
        n: index renames s.n;
    begin
        n:= 0;
    end empty;

    procedure push (s: in out stack; x: in elem) is
        n: index renames s.n;
        m: mem_space renames s.m;
    begin
        if n=index(max) then raise space_overflow; end if;
        n:= n+1; m(n):= x;
    end push;


    procedure pop (s: in out stack) is
        n: index renames s.n;
    begin
        if n=index(0) then raise bad_use; end if;
        n:= n-1;
    end pop;
        
    function is_empty (s: in stack) return boolean is
        n: index renames s.n;
    begin
        return n=0;
    end is_empty;


    function top (s: in stack) return elem is
        n: index renames s.n;
        m: mem_space renames s.m;
    begin
        return m(n);
    end top;

    -- Function that test equality between two stacks
    function "=" (s1, s2: in stack) return boolean is
        n1: index renames s1.n;
        m1: mem_space renames s1.m;
        n2: index renames s2.n;
        m2: mem_space renames s2.m;
        i: index;
        i0: index:= index'first + 1;
    begin
        -- If their length are not equal, return false
        if not (n1=n2) then return false; end if;      

        -- If both are empty, return true
        if is_empty(s1) and is_empty(s2) then return true; end if;

        -- Traversal of the memory space looking for a different element
        i:= n1;
        while i > i0 and then m1(i)=m2(i) loop i:= i-1; end loop;

        -- If they all are the same, 0 index will be reached
        return i=i0 and then m1(i0)=m2(i0);
    end "=";

end d_stack;
\end{lstlisting}
$ \pagebreak $
\section{global_declarations.ads}
\begin{lstlisting}[ basicstyle=\small, numbers=left, frame=single, tabsize=3, backgroundcolor=\color{mygray}]
with d_expr;

package global_declarations is
    max_expressions: constant natural:= 300;
    max_vertical_size_expression: constant natural:= 20;
    max_rules: constant natural:= 20;
    max_expression_changes: constant natural:= 30;

    package my_dexpr is new d_expr(max_expressions, max_vertical_size_expression);
end global_declarations;
\end{lstlisting}
$ \pagebreak $
\section{utilities.ads}
\begin{lstlisting}[ basicstyle=\small, numbers=left, frame=single, tabsize=3, backgroundcolor=\color{mygray}]
with Ada.text_io, global_declarations;
use Ada.text_io, global_declarations, global_declarations.my_dexpr;

package utilities is

    syntax_error: exception;

    procedure read_e(path: in String; e: out expression);
    procedure read_rule(e1, e2: out expression);
end utilities;
\end{lstlisting}
$ \pagebreak $
\section{utilities.adb}
\begin{lstlisting}[ basicstyle=\small, numbers=left, frame=single, tabsize=3, backgroundcolor=\color{mygray}]
with ada.strings.unbounded;    use ada.strings.unbounded;

package body utilities is

    c: character; -- Next character to process
    f: file_type; -- File containing the expression
    reading_rule: boolean:= false; -- if true, uses b_gen for literals. 
                                   -- Otherwise, b_var.

    procedure read_expr (e: out expression);
    procedure read_term (e: out expression);
    procedure read_factor (e: out expression);
    procedure read_factor1 (e: out expression);
    function scan_id   return un_op;
    function scan_num return natural;

    procedure next_char is
    begin
        if reading_rule then get(c); 
                        else get(f,c); 
        end if;
    end next_char;

    procedure read_expr(e: out expression) is
        neg_term: boolean;
        op:		  character;
        e1:		  expression;
    begin
        neg_term:= c='-'; if neg_term then next_char; end if;
        read_term(e);
        if neg_term then e:= b_un_op(neg, e); end if;
        while c='+' or c='-' loop
            op:= c; next_char; read_term(e1);
            if op='+' then e:= b_bin_op(add, e, e1);
                      else e:= b_bin_op(sub, e, e1);
            end if;
        end loop;
    end read_expr;

    procedure read_term(e: out expression) is
        op: character;
        e1: expression;
    begin
        read_factor(e);
        while c='*' or c='/' loop
            op:= c; next_char; read_factor(e1);
            if op ='*' then e:= b_bin_op(prod, e, e1);
                       else e:= b_bin_op(quot, e, e1);
            end if;
       end loop;
    end read_term;

    procedure read_factor(e: out expression) is 
        e1: expression;
    begin
        read_factor1(e);
        if c='^' then
            next_char; read_factor1(e1);
            e:= b_bin_op(power, e, e1);
        end if;
    end read_factor;

    procedure read_factor1(e: out expression) is
        t: un_op;
        x: character;
    begin
        if c='(' then
            next_char; read_expr(e);
            if c/=')' then raise syntax_error; end if;
            next_char;
        elsif 'a'<=c and c<='z' then
            x:= c;
            t:= scan_id; 
            if t=neg then 
                if reading_rule then e:= b_gen(x);
                                else e:= b_var(x); 
                end if;
            else
                if c/='(' then raise syntax_error; end if;
                next_char;
                read_expr(e);
                if c/=')' then raise syntax_error; end if;
                next_char;
                e:= b_un_op(t, e);
            end if;
        elsif '0'<=c and c<='9' then
            e:= b_constant(scan_num);
        else
            raise syntax_error;
        end if;
    end read_factor1;

    -- (log, sin, cos, exp)
    function scan_id return un_op is
    begin
        case c is
            when 'l' =>
                next_char; if c/='o' then return neg; end if;
                next_char; if c/='g' then raise syntax_error; end if;
                next_char; return log;

            when 's' =>
                next_char; if c/='i' then return neg; end if;
                next_char; if c/='n' then raise syntax_error; end if;
                next_char; return sin;

            when 'c' =>
                next_char; if c/='o' then return neg; end if;
                next_char; if c/='s' then raise syntax_error; end if;
                next_char; return cos;

            when 'e' => 
                next_char; if c/='x' then return neg; end if;
                next_char; if c/='p' then raise syntax_error; end if;
                next_char; return exp;

            when others =>
                next_char; return neg;
        end case;
    end scan_id;

    function scan_num return natural is 
        s: unbounded_string;
    begin
        while '0'<=c and c<='9' loop
            append(s, c);
            next_char;
        end loop;
        return natural(integer'value(to_string(s)));
    exception
        when constraint_error => raise syntax_error;
    end scan_num;

    procedure read_e(path: in String; e: out expression) is
    begin
        -- Set up global variables in order to read from file a non rule expression.
        open(f, In_File, path);
        reading_rule:= false;
        next_char; 

        -- Read expression and check for errors
        read_expr(e);
        if c/=';' then raise syntax_error; end if;

        close(f);
    exception
        when syntax_error => e:= b_null; close(f); raise;
    end read_e;

    procedure read_rule(e1, e2: out expression) is
    begin
        -- Set up global variables in order to read from stdin a rule expression.
        reading_rule:= true;
        next_char; 
        
        -- Read first rule expression
        read_expr(e1);
        -- Check for errors
        if c/=' ' and c/='=' then raise syntax_error; end if;

        -- Read gap (plus '=') between expressions
        while c=' ' loop next_char; end loop;
        if c/='=' then raise syntax_error; end if;
        next_char; while c=' ' loop next_char; end loop;

        -- Read second rule expression
        read_expr(e2);
        -- Check for errors
        if c/=';' then raise syntax_error; end if;

    exception
        when syntax_error => e1:= b_null; e2:= b_null; raise;
    end read_rule;

end utilities;
\end{lstlisting}
