\relax 
\catcode 95\active
\@writefile{toc}{\contentsline {section}{\numberline {1}d_expr.ads}{2}}
\@writefile{toc}{\contentsline {section}{\numberline {2}d_expr.adb}{4}}
\@writefile{toc}{\contentsline {section}{\numberline {3}d_map.ads}{18}}
\@writefile{toc}{\contentsline {section}{\numberline {4}d_map.adb}{19}}
\@writefile{toc}{\contentsline {section}{\numberline {5}d_rules.ads}{20}}
\@writefile{toc}{\contentsline {section}{\numberline {6}d_rules.adb}{21}}
\@writefile{toc}{\contentsline {section}{\numberline {7}d_stack.ads}{23}}
\@writefile{toc}{\contentsline {section}{\numberline {8}d_stack.adb}{24}}
\@writefile{toc}{\contentsline {section}{\numberline {9}global_declarations.ads}{26}}
\@writefile{toc}{\contentsline {section}{\numberline {10}utilities.ads}{27}}
\@writefile{toc}{\contentsline {section}{\numberline {11}utilities.adb}{28}}
