\contentsline {section}{\numberline {1}Ejercicio 1}{3}
\contentsline {section}{\numberline {2}Ejercicio 2}{5}
\contentsline {section}{\numberline {3}Ejercicio 3}{5}
\contentsline {section}{\numberline {4}Ejercicio 4}{6}
\contentsline {section}{\numberline {5}Ejercicio 5}{7}
